  #,A,B,C,D,E,F,G,H,I,J,K,L,M,N,O,P,Q,R,S,T,U,V,W,X,Y,Z
  1, , , , , , , , , , , , ,N, , , ,N,~, , , ,N, ,N, , 
  2, , , , , , , , , , , , , , , , ,~, ,N, ,N, ,~, ,N, 
  3,~, , , ,N, , , , , , ,N,N, , , , , ,N, , , , , , , 
  4, , , ,N, , , , ,N, , ,~, , ,~, , , ,N,~, , ,N, , , 
  5, ,N,N,N,N, , , , , ,~, , , , , ,N, , , ,N, , , , , 
  6, , ,~, ,~,N, , , , , , ,N,N, , , , ,~, , ,N, , , ,N
  7, , ,N, ,N, , , , , , , , , , , , ,~,N,N, , , , , , 
  8,N, , ,~, ,N,N, , , ,N, , , , , , , , , , , , , , , 
  9, , , , , , , ,N, , , , ,~,~, , , , , , , , , , , , 
 10, , , , , , , ,N, , , , , , ,N, , , , , , , , , ,N,N
 11, , , , , ,N, , ,N, , , , , , , , , ,N, , , , , ,N,N
 12, , ,~, , ,~, , , , ,N,N, , , , , , , , , , , , , , 
 13, ,~, , , , , , , ,~, ,~, , , ,N, ,~,N, , , , , , , 
 14, ,~,N,~,~, , , ,N, , , , , , , , , , , , ,N, , ,~,N
 15, , , , ,N,~, ,N,N, , , , , , ,N,~, ,N,N,N, ,N, ,~, 
